%!PS
%%Version: 3.15
%%DocumentFonts: (atend)
%%Pages: (atend)
%%EndComments
%ident	"@(#)lp:filter/postscript/postscript/dpost.ps	1.1"
%
% Version 3.16 prologue for troff files.
%

/#copies 1 store
/aspectratio 1 def
/formsperpage 1 def
/landscape false def
/linewidth .3 def
/magnification 1 def
/margin 0 def
/orientation 0 def
/resolution 720 def
/xoffset 0 def
/yoffset 0 def

/roundpage true def
/useclippath true def
/pagebbox [0 0 612 792] def

/R  /Times-Roman def
/I  /Times-Italic def
/B  /Times-Bold def
/BI /Times-BoldItalic def
/H  /Helvetica def
/HI /Helvetica-Oblique def
/HB /Helvetica-Bold def
/HX /Helvetica-BoldOblique def
/CW /Courier def
/CO /Courier def
/CI /Courier-Oblique def
/CB /Courier-Bold def
/CX /Courier-BoldOblique def
/PA /Palatino-Roman def
/PI /Palatino-Italic def
/PB /Palatino-Bold def
/PX /Palatino-BoldItalic def
/Hr /Helvetica-Narrow def
/Hi /Helvetica-Narrow-Oblique def
/Hb /Helvetica-Narrow-Bold def
/Hx /Helvetica-Narrow-BoldOblique def
/KR /Bookman-Light def
/KI /Bookman-LightItalic def
/KB /Bookman-Demi def
/KX /Bookman-DemiItalic def
/AR /AvantGarde-Book def
/AI /AvantGarde-BookOblique def
/AB /AvantGarde-Demi def
/AX /AvantGarde-DemiOblique def
/NR /NewCenturySchlbk-Roman def
/NI /NewCenturySchlbk-Italic def
/NB /NewCenturySchlbk-Bold def
/NX /NewCenturySchlbk-BoldItalic def
/ZD /ZapfDingbats def
/ZI /ZapfChancery-MediumItalic def
/VR /Varitimes#Roman def
/VI /Varitimes#Italic def
/VB /Varitimes#Bold def
/VX /Varitimes#BoldItalic def
/S  /S def
/S1 /S1 def
/GR /Symbol def

/inch {72 mul} bind def
/min {2 copy gt {exch} if pop} bind def

/setup {
	counttomark 2 idiv {def} repeat pop

	landscape {/orientation 90 orientation add def} if
	/scaling 72 resolution div def
	linewidth setlinewidth
	1 setlinecap

	pagedimensions
	xcenter ycenter translate
	orientation neg rotate
	width 2 div neg height 2 div translate
	xoffset inch yoffset inch translate
	margin 2 div dup neg translate
	magnification dup aspectratio mul scale
	scaling scaling scale

	/Symbol /S Sdefs cf
	/Times-Roman /S1 S1defs cf
	0 0 moveto
} def

/pagedimensions {
	useclippath userdict /gotpagebbox known not and {
		/pagebbox [clippath pathbbox newpath] def
		roundpage currentdict /roundpagebbox known and {roundpagebbox} if
	} if
	pagebbox aload pop
	4 -1 roll exch 4 1 roll 4 copy
	landscape {4 2 roll} if
	sub /width exch def
	sub /height exch def
	add 2 div /xcenter exch def
	add 2 div /ycenter exch def
	userdict /gotpagebbox true put
} def

/pagesetup {
	/page exch def
	currentdict /pagedict known currentdict page known and {
		page load pagedict exch get cvx exec
	} if
} def

/decodingdefs [
	{counttomark 2 idiv {y moveto show} repeat}
	{neg /y exch def counttomark 2 idiv {y moveto show} repeat}
	{neg moveto {2 index stringwidth pop sub exch div 0 32 4 -1 roll widthshow} repeat}
	{neg moveto {spacewidth sub 0.0 32 4 -1 roll widthshow} repeat}
	{counttomark 2 idiv {y moveto show} repeat}
	{neg setfunnytext}
] def

/setdecoding {/t decodingdefs 3 -1 roll get bind def} bind def

/w {neg moveto show} bind def
/m {neg dup /y exch def moveto} bind def
/done {/lastpage where {pop lastpage} if} def

/f {
	dup /font exch def findfont exch
	dup /ptsize exch def scaling div dup /size exch def scalefont setfont
	linewidth ptsize mul scaling 10 mul div setlinewidth
	/spacewidth ( ) stringwidth pop def
} bind def

/changefont {
	/fontheight exch def
	/fontslant exch def
	currentfont [
		1 0
		fontheight ptsize div fontslant sin mul fontslant cos div
		fontheight ptsize div
		0 0
	] makefont setfont
} bind def

/sf {f} bind def

/cf {
	dup length 2 idiv
	/entries exch def
	/chtab exch def
	/newfont exch def

	findfont dup length 1 add dict
	/newdict exch def
	{1 index /FID ne {newdict 3 1 roll put} {pop pop} ifelse} forall

	newdict /Metrics entries dict put
	newdict /Metrics get
	begin
		chtab aload pop
		1 1 entries {pop def} for
		newfont newdict definefont pop
	end
} bind def

%
% A few arrays used to adjust reference points and character widths in some
% of the printer resident fonts. If square roots are too high try changing
% the lines describing /radical and /radicalex to,
%
%	/radical	[0 -75 550 0]
%	/radicalex	[-50 -75 500 0]
%

/Sdefs [
	/bracketlefttp		[220 500]
	/bracketleftbt		[220 500]
	/bracketrighttp		[-70 380]
	/bracketrightbt		[-70 380]
	/braceleftbt		[220 490]
	/bracketrightex		[220 -125 500 0]
	/radical		[0 0 550 0]
	% NeWSprint's \(br is too low, compensate
	statusdict /product get (NeWS Server) eq {
		/radicalex		[-50 100 500 0]
		/parenleftex		[-20 100 0 0]

	} {
		/radicalex		[-50 0 500 0]
		/parenleftex		[-20 -170 0 0]
	} ifelse
	/integral		[100 -50 500 0]
	/infinity		[10 -75 730 0]
] def

/S1defs [
	/underscore		[0 80 500 0]
	/endash			[7 90 650 0]
] def
%%EndProlog
%%BeginSetup
mark
/resolution 720 def
setup
2 setdecoding
%%EndSetup
%%Page: 1 1
save
mark
1 pagesetup
10 R f
(WordNet)720 480 w
10 S f
(\324)1091 480 w
10 R f
(WNGROUPS \( 7WN \))3 891 1 4509 480 t
9 B f
(NAME)720 960 w
10 R f
(wngroups)1080 1080 w
10 S1 f
(\261)1507 1080 w
10 R f
(discussion of WordNet search code to group similar verb senses)9 2631 1 1605 1080 t
9 B f
(DESCRIPTION)720 1248 w
10 R f
( grouping is done statically)4 1127( This)1 246(Some similar senses of verbs have been grouped by the lexicographers.)10 2947 3 1080 1368 t
(in the lexicographer source \256les using the semantic)7 2163 1 1080 1488 t
10 I f
(pointer)3285 1488 w
10 S f
(_)3574 1488 w
10 I f
(symbol)3624 1488 w
10 B f
($)3948 1488 w
10 R f
( is used to combine)4 836(. Transitivity)1 566 2 3998 1488 t
(groups of overlapping senses into the largest sense groups possible.)9 2769 1 1080 1608 t
9 B f
(NOTES)720 1776 w
10 R f
(Coverage of verb groups is incomplete.)5 1615 1 1080 1896 t
9 B f
(ENVIRONMENT VARIABLES \(UNIX\))2 1600 1 720 2064 t
10 B f
(WNHOME)1080 2184 w
10 R f
( is)1 100( Default)1 365(Base directory for WordNet.)3 1165 3 2080 2184 t
10 B f
(/usr/local/WordNet-3.0)3743 2184 w
10 R f
(.)4723 2184 w
10 B f
(WNSEARCHDIR)1080 2352 w
10 R f
( which the WordNet database has been installed. Default is)9 2788(Directory in)1 532 2 2080 2352 t
10 B f
(WNHOME/dict)2080 2472 w
10 R f
(.)2758 2472 w
9 B f
(REGISTRY \(WINDOWS\))1 1040 1 720 2640 t
10 B f
(HKEY)1080 2760 w
10 S f
(_)1375 2760 w
10 B f
(LOCAL)1425 2760 w
10 S f
(_)1781 2760 w
10 B f
(MACHINE)1831 2760 w
10 S1 f
(\\)2325 2760 w
10 B f
(SOFTWARE)2353 2760 w
10 S1 f
(\\)2926 2760 w
10 B f
(WordNet)2954 2760 w
10 S1 f
(\\)3353 2760 w
10 B f
(3.0)3381 2760 w
10 S1 f
(\\)3506 2760 w
10 B f
(WNHome)3534 2760 w
10 R f
( is)1 100( Default)1 365(Base directory for WordNet.)3 1165 3 2080 2880 t
10 B f
(C:)3743 2880 w
10 S1 f
(\\)3848 2880 w
10 B f
(Program Files)1 615 1 3876 2880 t
10 S1 f
(\\)4491 2880 w
10 B f
(WordNet)4519 2880 w
10 S1 f
(\\)4918 2880 w
10 B f
(3.0)4946 2880 w
10 R f
(.)5071 2880 w
9 B f
(FILES)720 3048 w
10 B f
(sentidx.vrb)1080 3168 w
10 R f
(verb sense keys and sentence frame numbers)6 1837 1 2080 3168 t
10 B f
(sents.vrb)1080 3336 w
10 R f
(example sentence frames)2 1018 1 2080 3336 t
9 B f
(SEE ALSO)1 460 1 720 3504 t
10 B f
(wn)1080 3624 w
10 R f
(\(1WN\),)1208 3624 w
10 B f
(wnb)1548 3624 w
10 R f
(\(1WN\),)1732 3624 w
10 B f
(senseidx)2072 3624 w
10 R f
(\(5WN\),)2428 3624 w
10 B f
(wnsearch)2768 3624 w
10 R f
(\(3WN\),)3173 3624 w
10 B f
(wndb)3513 3624 w
10 R f
(\(5WN\),)3753 3624 w
10 B f
(wnintro)4093 3624 w
10 R f
(\(7WN\).)4432 3624 w
( 1)1 1870( change: Dec 2006)3 769( Last)1 1512(WordNet 3.0)1 529 4 720 7680 t
cleartomark
showpage
restore
%%EndPage: 1 1
%%Trailer
done
%%DocumentFonts: Times-Roman Symbol Times-Bold Times-Italic
%%Pages: 1
