%!PS
%%Version: 3.15
%%DocumentFonts: (atend)
%%Pages: (atend)
%%EndComments
%ident	"@(#)lp:filter/postscript/postscript/dpost.ps	1.1"
%
% Version 3.16 prologue for troff files.
%

/#copies 1 store
/aspectratio 1 def
/formsperpage 1 def
/landscape false def
/linewidth .3 def
/magnification 1 def
/margin 0 def
/orientation 0 def
/resolution 720 def
/xoffset 0 def
/yoffset 0 def

/roundpage true def
/useclippath true def
/pagebbox [0 0 612 792] def

/R  /Times-Roman def
/I  /Times-Italic def
/B  /Times-Bold def
/BI /Times-BoldItalic def
/H  /Helvetica def
/HI /Helvetica-Oblique def
/HB /Helvetica-Bold def
/HX /Helvetica-BoldOblique def
/CW /Courier def
/CO /Courier def
/CI /Courier-Oblique def
/CB /Courier-Bold def
/CX /Courier-BoldOblique def
/PA /Palatino-Roman def
/PI /Palatino-Italic def
/PB /Palatino-Bold def
/PX /Palatino-BoldItalic def
/Hr /Helvetica-Narrow def
/Hi /Helvetica-Narrow-Oblique def
/Hb /Helvetica-Narrow-Bold def
/Hx /Helvetica-Narrow-BoldOblique def
/KR /Bookman-Light def
/KI /Bookman-LightItalic def
/KB /Bookman-Demi def
/KX /Bookman-DemiItalic def
/AR /AvantGarde-Book def
/AI /AvantGarde-BookOblique def
/AB /AvantGarde-Demi def
/AX /AvantGarde-DemiOblique def
/NR /NewCenturySchlbk-Roman def
/NI /NewCenturySchlbk-Italic def
/NB /NewCenturySchlbk-Bold def
/NX /NewCenturySchlbk-BoldItalic def
/ZD /ZapfDingbats def
/ZI /ZapfChancery-MediumItalic def
/VR /Varitimes#Roman def
/VI /Varitimes#Italic def
/VB /Varitimes#Bold def
/VX /Varitimes#BoldItalic def
/S  /S def
/S1 /S1 def
/GR /Symbol def

/inch {72 mul} bind def
/min {2 copy gt {exch} if pop} bind def

/setup {
	counttomark 2 idiv {def} repeat pop

	landscape {/orientation 90 orientation add def} if
	/scaling 72 resolution div def
	linewidth setlinewidth
	1 setlinecap

	pagedimensions
	xcenter ycenter translate
	orientation neg rotate
	width 2 div neg height 2 div translate
	xoffset inch yoffset inch translate
	margin 2 div dup neg translate
	magnification dup aspectratio mul scale
	scaling scaling scale

	/Symbol /S Sdefs cf
	/Times-Roman /S1 S1defs cf
	0 0 moveto
} def

/pagedimensions {
	useclippath userdict /gotpagebbox known not and {
		/pagebbox [clippath pathbbox newpath] def
		roundpage currentdict /roundpagebbox known and {roundpagebbox} if
	} if
	pagebbox aload pop
	4 -1 roll exch 4 1 roll 4 copy
	landscape {4 2 roll} if
	sub /width exch def
	sub /height exch def
	add 2 div /xcenter exch def
	add 2 div /ycenter exch def
	userdict /gotpagebbox true put
} def

/pagesetup {
	/page exch def
	currentdict /pagedict known currentdict page known and {
		page load pagedict exch get cvx exec
	} if
} def

/decodingdefs [
	{counttomark 2 idiv {y moveto show} repeat}
	{neg /y exch def counttomark 2 idiv {y moveto show} repeat}
	{neg moveto {2 index stringwidth pop sub exch div 0 32 4 -1 roll widthshow} repeat}
	{neg moveto {spacewidth sub 0.0 32 4 -1 roll widthshow} repeat}
	{counttomark 2 idiv {y moveto show} repeat}
	{neg setfunnytext}
] def

/setdecoding {/t decodingdefs 3 -1 roll get bind def} bind def

/w {neg moveto show} bind def
/m {neg dup /y exch def moveto} bind def
/done {/lastpage where {pop lastpage} if} def

/f {
	dup /font exch def findfont exch
	dup /ptsize exch def scaling div dup /size exch def scalefont setfont
	linewidth ptsize mul scaling 10 mul div setlinewidth
	/spacewidth ( ) stringwidth pop def
} bind def

/changefont {
	/fontheight exch def
	/fontslant exch def
	currentfont [
		1 0
		fontheight ptsize div fontslant sin mul fontslant cos div
		fontheight ptsize div
		0 0
	] makefont setfont
} bind def

/sf {f} bind def

/cf {
	dup length 2 idiv
	/entries exch def
	/chtab exch def
	/newfont exch def

	findfont dup length 1 add dict
	/newdict exch def
	{1 index /FID ne {newdict 3 1 roll put} {pop pop} ifelse} forall

	newdict /Metrics entries dict put
	newdict /Metrics get
	begin
		chtab aload pop
		1 1 entries {pop def} for
		newfont newdict definefont pop
	end
} bind def

%
% A few arrays used to adjust reference points and character widths in some
% of the printer resident fonts. If square roots are too high try changing
% the lines describing /radical and /radicalex to,
%
%	/radical	[0 -75 550 0]
%	/radicalex	[-50 -75 500 0]
%

/Sdefs [
	/bracketlefttp		[220 500]
	/bracketleftbt		[220 500]
	/bracketrighttp		[-70 380]
	/bracketrightbt		[-70 380]
	/braceleftbt		[220 490]
	/bracketrightex		[220 -125 500 0]
	/radical		[0 0 550 0]
	% NeWSprint's \(br is too low, compensate
	statusdict /product get (NeWS Server) eq {
		/radicalex		[-50 100 500 0]
		/parenleftex		[-20 100 0 0]

	} {
		/radicalex		[-50 0 500 0]
		/parenleftex		[-20 -170 0 0]
	} ifelse
	/integral		[100 -50 500 0]
	/infinity		[10 -75 730 0]
] def

/S1defs [
	/underscore		[0 80 500 0]
	/endash			[7 90 650 0]
] def
%%EndProlog
%%BeginSetup
mark
/resolution 720 def
setup
2 setdecoding
%%EndSetup
%%Page: 1 1
save
mark
1 pagesetup
10 R f
(Miscellaneous WordNet)1 981 1 720 480 t
10 S f
(\324)1701 480 w
10 R f
( \( 7WN \))3 330(Topics WNINTRO)1 3247 2 1823 480 t
9 B f
(NAME)720 960 w
10 R f
(wnintro)1080 1080 w
10 S1 f
(\261)1424 1080 w
10 R f
(introduction to miscellaneous WordNet information)4 2108 1 1522 1080 t
9 B f
(SYNOPSIS)720 1248 w
10 B f
(morphy)1080 1368 w
10 S1 f
(\261)1452 1368 w
10 R f
(discussion of WordNet's morphological processing)4 2085 1 1550 1368 t
10 B f
(uniqbeg)1080 1536 w
10 S1 f
(\261)1459 1536 w
10 R f
(unique beginners for noun hierarchies)4 1545 1 1557 1536 t
10 B f
(wngloss)1080 1704 w
10 S1 f
(\261)1447 1704 w
10 R f
(glossary of terms used in WordNet)5 1435 1 1545 1704 t
10 B f
(wngroups)1080 1872 w
10 S1 f
(\261)1536 1872 w
10 R f
(discussion of WordNet search code to group similar senses)8 2421 1 1634 1872 t
10 B f
(wnlicens)1080 2040 w
10 S1 f
(\261)1480 2040 w
10 R f
(text of WordNet license agreement)4 1428 1 1578 2040 t
10 B f
(wnpkgs)1080 2208 w
10 S1 f
(\261)1442 2208 w
10 R f
(information about WordNet packages and distribution)5 2201 1 1540 2208 t
10 B f
(wnstats)1080 2376 w
10 S1 f
(\261)1435 2376 w
10 R f
(database statistics)1 721 1 1533 2376 t
9 B f
(DESCRIPTION)720 2544 w
10 R f
(This section of the)3 831 1 1080 2664 t
10 I f
(WordNet Reference Manual)2 1180 1 1966 2664 t
10 R f
(contains manual pages that describe various topics)6 2199 1 3201 2664 t
(related to WordNet and the semantic concordances, and a glossary of terms.)11 3122 1 1080 2784 t
9 B f
(SEE ALSO)1 460 1 720 2952 t
10 B f
(wnintro)1080 3072 w
10 R f
(\(1WN\),)1419 3072 w
10 B f
(wnintro)1796 3072 w
10 R f
(\(3WN\),)2135 3072 w
10 B f
(wnintro)2512 3072 w
10 R f
(\(5WN\),)2851 3072 w
10 B f
(morphy)3229 3072 w
10 R f
(\(7WN\),)3568 3072 w
10 B f
(uniqbeg)3946 3072 w
10 R f
(\(7WN\),)4292 3072 w
10 B f
(wngroups)4670 3072 w
10 R f
(\(7WN\),)5093 3072 w
10 B f
(wnlicens)1080 3192 w
10 R f
(\(7WN\),)1447 3192 w
10 B f
(wnpkgs)1787 3192 w
10 R f
(\(7WN\),)2116 3192 w
10 B f
(wnstats)2456 3192 w
10 R f
(\(7WN\),)2778 3192 w
10 B f
(wngloss)3118 3192 w
10 R f
(\(7WN\).)3452 3192 w
(Fellbaum, C. \(1998\), ed.)3 1004 1 1080 3360 t
10 S1 f
(")2150 3360 w
10 I f
(WordNet: An Electronic Lexical Database)4 1730 1 2191 3360 t
10 S1 f
(")3921 3360 w
10 R f
( Press, Cambridge, MA.)3 990(. MIT)1 274 2 3962 3360 t
( 1)1 1870( change: Dec 2006)3 769( Last)1 1512(WordNet 3.0)1 529 4 720 7680 t
cleartomark
showpage
restore
%%EndPage: 1 1
%%Trailer
done
%%DocumentFonts: Times-Roman Symbol Times-Bold Times-Italic
%%Pages: 1
