%!PS
%%Version: 3.15
%%DocumentFonts: (atend)
%%Pages: (atend)
%%EndComments
%ident	"@(#)lp:filter/postscript/postscript/dpost.ps	1.1"
%
% Version 3.16 prologue for troff files.
%

/#copies 1 store
/aspectratio 1 def
/formsperpage 1 def
/landscape false def
/linewidth .3 def
/magnification 1 def
/margin 0 def
/orientation 0 def
/resolution 720 def
/xoffset 0 def
/yoffset 0 def

/roundpage true def
/useclippath true def
/pagebbox [0 0 612 792] def

/R  /Times-Roman def
/I  /Times-Italic def
/B  /Times-Bold def
/BI /Times-BoldItalic def
/H  /Helvetica def
/HI /Helvetica-Oblique def
/HB /Helvetica-Bold def
/HX /Helvetica-BoldOblique def
/CW /Courier def
/CO /Courier def
/CI /Courier-Oblique def
/CB /Courier-Bold def
/CX /Courier-BoldOblique def
/PA /Palatino-Roman def
/PI /Palatino-Italic def
/PB /Palatino-Bold def
/PX /Palatino-BoldItalic def
/Hr /Helvetica-Narrow def
/Hi /Helvetica-Narrow-Oblique def
/Hb /Helvetica-Narrow-Bold def
/Hx /Helvetica-Narrow-BoldOblique def
/KR /Bookman-Light def
/KI /Bookman-LightItalic def
/KB /Bookman-Demi def
/KX /Bookman-DemiItalic def
/AR /AvantGarde-Book def
/AI /AvantGarde-BookOblique def
/AB /AvantGarde-Demi def
/AX /AvantGarde-DemiOblique def
/NR /NewCenturySchlbk-Roman def
/NI /NewCenturySchlbk-Italic def
/NB /NewCenturySchlbk-Bold def
/NX /NewCenturySchlbk-BoldItalic def
/ZD /ZapfDingbats def
/ZI /ZapfChancery-MediumItalic def
/VR /Varitimes#Roman def
/VI /Varitimes#Italic def
/VB /Varitimes#Bold def
/VX /Varitimes#BoldItalic def
/S  /S def
/S1 /S1 def
/GR /Symbol def

/inch {72 mul} bind def
/min {2 copy gt {exch} if pop} bind def

/setup {
	counttomark 2 idiv {def} repeat pop

	landscape {/orientation 90 orientation add def} if
	/scaling 72 resolution div def
	linewidth setlinewidth
	1 setlinecap

	pagedimensions
	xcenter ycenter translate
	orientation neg rotate
	width 2 div neg height 2 div translate
	xoffset inch yoffset inch translate
	margin 2 div dup neg translate
	magnification dup aspectratio mul scale
	scaling scaling scale

	/Symbol /S Sdefs cf
	/Times-Roman /S1 S1defs cf
	0 0 moveto
} def

/pagedimensions {
	useclippath userdict /gotpagebbox known not and {
		/pagebbox [clippath pathbbox newpath] def
		roundpage currentdict /roundpagebbox known and {roundpagebbox} if
	} if
	pagebbox aload pop
	4 -1 roll exch 4 1 roll 4 copy
	landscape {4 2 roll} if
	sub /width exch def
	sub /height exch def
	add 2 div /xcenter exch def
	add 2 div /ycenter exch def
	userdict /gotpagebbox true put
} def

/pagesetup {
	/page exch def
	currentdict /pagedict known currentdict page known and {
		page load pagedict exch get cvx exec
	} if
} def

/decodingdefs [
	{counttomark 2 idiv {y moveto show} repeat}
	{neg /y exch def counttomark 2 idiv {y moveto show} repeat}
	{neg moveto {2 index stringwidth pop sub exch div 0 32 4 -1 roll widthshow} repeat}
	{neg moveto {spacewidth sub 0.0 32 4 -1 roll widthshow} repeat}
	{counttomark 2 idiv {y moveto show} repeat}
	{neg setfunnytext}
] def

/setdecoding {/t decodingdefs 3 -1 roll get bind def} bind def

/w {neg moveto show} bind def
/m {neg dup /y exch def moveto} bind def
/done {/lastpage where {pop lastpage} if} def

/f {
	dup /font exch def findfont exch
	dup /ptsize exch def scaling div dup /size exch def scalefont setfont
	linewidth ptsize mul scaling 10 mul div setlinewidth
	/spacewidth ( ) stringwidth pop def
} bind def

/changefont {
	/fontheight exch def
	/fontslant exch def
	currentfont [
		1 0
		fontheight ptsize div fontslant sin mul fontslant cos div
		fontheight ptsize div
		0 0
	] makefont setfont
} bind def

/sf {f} bind def

/cf {
	dup length 2 idiv
	/entries exch def
	/chtab exch def
	/newfont exch def

	findfont dup length 1 add dict
	/newdict exch def
	{1 index /FID ne {newdict 3 1 roll put} {pop pop} ifelse} forall

	newdict /Metrics entries dict put
	newdict /Metrics get
	begin
		chtab aload pop
		1 1 entries {pop def} for
		newfont newdict definefont pop
	end
} bind def

%
% A few arrays used to adjust reference points and character widths in some
% of the printer resident fonts. If square roots are too high try changing
% the lines describing /radical and /radicalex to,
%
%	/radical	[0 -75 550 0]
%	/radicalex	[-50 -75 500 0]
%

/Sdefs [
	/bracketlefttp		[220 500]
	/bracketleftbt		[220 500]
	/bracketrighttp		[-70 380]
	/bracketrightbt		[-70 380]
	/braceleftbt		[220 490]
	/bracketrightex		[220 -125 500 0]
	/radical		[0 0 550 0]
	% NeWSprint's \(br is too low, compensate
	statusdict /product get (NeWS Server) eq {
		/radicalex		[-50 100 500 0]
		/parenleftex		[-20 100 0 0]

	} {
		/radicalex		[-50 0 500 0]
		/parenleftex		[-20 -170 0 0]
	} ifelse
	/integral		[100 -50 500 0]
	/infinity		[10 -75 730 0]
] def

/S1defs [
	/underscore		[0 80 500 0]
	/endash			[7 90 650 0]
] def
%%EndProlog
%%BeginSetup
mark
/resolution 720 def
setup
2 setdecoding
%%EndSetup
%%Page: 1 1
save
mark
1 pagesetup
10 R f
(WordNet)720 480 w
10 S f
(\324)1091 480 w
10 R f
( \( 5WN \))3 330( WNINTRO)1 3340(File Formats)1 517 3 1213 480 t
9 B f
(NAME)720 960 w
10 R f
(wnintro)1080 1080 w
10 S1 f
(\261)1424 1080 w
10 R f
(introduction to descriptions of WordNet \256le formats)6 2135 1 1522 1080 t
9 B f
(SYNOPSIS)720 1248 w
10 B f
(cntlist)1080 1368 w
10 S1 f
(\261)1374 1368 w
10 R f
(format of)1 382 1 1472 1368 t
10 B f
(cntlist)1887 1368 w
10 R f
(and)2181 1368 w
10 B f
(cntlist.rev)2358 1368 w
10 R f
(\256les)2815 1368 w
10 B f
(lexnames)1080 1536 w
10 S1 f
(\261)1507 1536 w
10 R f
(list of lexicographer \256le names and numbers)6 1823 1 1605 1536 t
10 B f
(prologdb)1080 1704 w
10 S1 f
(\261)1503 1704 w
10 R f
(description of Prolog database \256les)4 1436 1 1601 1704 t
10 B f
(senseidx)1080 1872 w
10 S1 f
(\261)1469 1872 w
10 R f
(format of sense index \256le)4 1047 1 1567 1872 t
10 B f
(sensemap)1080 2040 w
10 S1 f
(\261)1524 2040 w
10 R f
(mapping from senses in WordNet 2.1 to corresponding 3.0 senses)9 2699 1 1622 2040 t
10 B f
(wndb)1080 2208 w
10 S1 f
(\261)1353 2208 w
10 R f
(format of WordNet database \256les)4 1362 1 1451 2208 t
10 B f
(wninput)1080 2376 w
10 S1 f
(\261)1470 2376 w
10 R f
(format of WordNet lexicographer \256les)4 1567 1 1568 2376 t
9 B f
(DESCRIPTION)720 2544 w
10 R f
(This section of the)3 789 1 1080 2664 t
10 I f
(WordNet Reference Manual)2 1152 1 1910 2664 t
10 R f
( the)1 164(contains manual pages that describe the formats of)7 2133 2 3103 2664 t
(various \256les included in different WordNet 3.0 packages.)7 2343 1 1080 2784 t
9 B f
(NOMENCLATURE)720 2952 w
10 R f
( unless otherwise noted, and each)5 1431( are generally separated by one space,)6 1616( Fields)1 321(All \256les are in ASCII.)4 952 4 1080 3072 t
( format descriptions, terms in)4 1218( the \256le)2 324( In)1 153(line is terminated with a newline character.)6 1793 4 1080 3192 t
10 I f
(italics)4604 3192 w
10 R f
(refer to \256eld)2 515 1 4885 3192 t
( or strings in)3 536(names. Characters)1 775 2 1080 3312 t
10 B f
(boldface)2427 3312 w
10 R f
(represent an actual character or string as it appears in the \256le.)11 2575 1 2825 3312 t
(Items enclosed in italicized square brackets \()6 1874 1 1080 3432 t
10 I f
([ ])1 144 1 2954 3432 t
10 R f
( several \256les contain \256elds)4 1112( Since)1 294(\) may not be present.)4 896 3 3098 3432 t
( example, several WordNet)3 1157( For)1 219( meaning, \256eld names are consistently de\256ned.)6 2002(that have the identical)3 942 4 1080 3552 t
(\256les contain one or more)4 1025 1 1080 3672 t
10 I f
(synset)2138 3672 w
10 S f
(_)2382 3672 w
10 I f
(offset)2432 3672 w
10 R f
( each case, the de\256nition of)5 1132(\256elds. In)1 391 2 2682 3672 t
10 I f
(synset)4238 3672 w
10 S f
(_)4482 3672 w
10 I f
(offset)4532 3672 w
10 R f
(is identical.)1 469 1 4782 3672 t
9 B f
(SEE ALSO)1 460 1 720 3840 t
10 B f
(wnintro)1080 3960 w
10 R f
(\(1WN\),)1419 3960 w
10 B f
(wnintro)1805 3960 w
10 R f
(\(3WN\),)2144 3960 w
10 B f
(cntlist)2531 3960 w
10 R f
(\(5WN\),)2792 3960 w
10 B f
(lexnames)3179 3960 w
10 R f
(\(5WN\),)3573 3960 w
10 B f
(prologdb)3960 3960 w
10 R f
(\(5WN\),)4350 3960 w
10 B f
(senseidx)4737 3960 w
10 R f
(\(5WN\),)5093 3960 w
10 B f
(sensemap)1080 4080 w
10 R f
(\(5WN\),)1491 4080 w
10 B f
(wndb)1831 4080 w
10 R f
(\(5WN\),)2071 4080 w
10 B f
(wninput)2411 4080 w
10 R f
(\(5WN\),)2768 4080 w
10 B f
(wnintro)3108 4080 w
10 R f
(\(7WN\),)3447 4080 w
10 B f
(wngloss)3787 4080 w
10 R f
(\(7WN\).)4121 4080 w
(Fellbaum, C. \(1998\), ed.)3 1004 1 1080 4248 t
10 S1 f
(")2150 4248 w
10 I f
(WordNet: An Electronic Lexical Database)4 1730 1 2191 4248 t
10 S1 f
(")3921 4248 w
10 R f
( Press, Cambridge, MA.)3 990(. MIT)1 274 2 3962 4248 t
( 1)1 1870( change: Dec 2006)3 769( Last)1 1512(WordNet 3.0)1 529 4 720 7680 t
cleartomark
showpage
restore
%%EndPage: 1 1
%%Trailer
done
%%DocumentFonts: Times-Roman Symbol Times-Bold Times-Italic
%%Pages: 1
