%!PS
%%Version: 3.15
%%DocumentFonts: (atend)
%%Pages: (atend)
%%EndComments
%ident	"@(#)lp:filter/postscript/postscript/dpost.ps	1.1"
%
% Version 3.16 prologue for troff files.
%

/#copies 1 store
/aspectratio 1 def
/formsperpage 1 def
/landscape false def
/linewidth .3 def
/magnification 1 def
/margin 0 def
/orientation 0 def
/resolution 720 def
/xoffset 0 def
/yoffset 0 def

/roundpage true def
/useclippath true def
/pagebbox [0 0 612 792] def

/R  /Times-Roman def
/I  /Times-Italic def
/B  /Times-Bold def
/BI /Times-BoldItalic def
/H  /Helvetica def
/HI /Helvetica-Oblique def
/HB /Helvetica-Bold def
/HX /Helvetica-BoldOblique def
/CW /Courier def
/CO /Courier def
/CI /Courier-Oblique def
/CB /Courier-Bold def
/CX /Courier-BoldOblique def
/PA /Palatino-Roman def
/PI /Palatino-Italic def
/PB /Palatino-Bold def
/PX /Palatino-BoldItalic def
/Hr /Helvetica-Narrow def
/Hi /Helvetica-Narrow-Oblique def
/Hb /Helvetica-Narrow-Bold def
/Hx /Helvetica-Narrow-BoldOblique def
/KR /Bookman-Light def
/KI /Bookman-LightItalic def
/KB /Bookman-Demi def
/KX /Bookman-DemiItalic def
/AR /AvantGarde-Book def
/AI /AvantGarde-BookOblique def
/AB /AvantGarde-Demi def
/AX /AvantGarde-DemiOblique def
/NR /NewCenturySchlbk-Roman def
/NI /NewCenturySchlbk-Italic def
/NB /NewCenturySchlbk-Bold def
/NX /NewCenturySchlbk-BoldItalic def
/ZD /ZapfDingbats def
/ZI /ZapfChancery-MediumItalic def
/VR /Varitimes#Roman def
/VI /Varitimes#Italic def
/VB /Varitimes#Bold def
/VX /Varitimes#BoldItalic def
/S  /S def
/S1 /S1 def
/GR /Symbol def

/inch {72 mul} bind def
/min {2 copy gt {exch} if pop} bind def

/setup {
	counttomark 2 idiv {def} repeat pop

	landscape {/orientation 90 orientation add def} if
	/scaling 72 resolution div def
	linewidth setlinewidth
	1 setlinecap

	pagedimensions
	xcenter ycenter translate
	orientation neg rotate
	width 2 div neg height 2 div translate
	xoffset inch yoffset inch translate
	margin 2 div dup neg translate
	magnification dup aspectratio mul scale
	scaling scaling scale

	/Symbol /S Sdefs cf
	/Times-Roman /S1 S1defs cf
	0 0 moveto
} def

/pagedimensions {
	useclippath userdict /gotpagebbox known not and {
		/pagebbox [clippath pathbbox newpath] def
		roundpage currentdict /roundpagebbox known and {roundpagebbox} if
	} if
	pagebbox aload pop
	4 -1 roll exch 4 1 roll 4 copy
	landscape {4 2 roll} if
	sub /width exch def
	sub /height exch def
	add 2 div /xcenter exch def
	add 2 div /ycenter exch def
	userdict /gotpagebbox true put
} def

/pagesetup {
	/page exch def
	currentdict /pagedict known currentdict page known and {
		page load pagedict exch get cvx exec
	} if
} def

/decodingdefs [
	{counttomark 2 idiv {y moveto show} repeat}
	{neg /y exch def counttomark 2 idiv {y moveto show} repeat}
	{neg moveto {2 index stringwidth pop sub exch div 0 32 4 -1 roll widthshow} repeat}
	{neg moveto {spacewidth sub 0.0 32 4 -1 roll widthshow} repeat}
	{counttomark 2 idiv {y moveto show} repeat}
	{neg setfunnytext}
] def

/setdecoding {/t decodingdefs 3 -1 roll get bind def} bind def

/w {neg moveto show} bind def
/m {neg dup /y exch def moveto} bind def
/done {/lastpage where {pop lastpage} if} def

/f {
	dup /font exch def findfont exch
	dup /ptsize exch def scaling div dup /size exch def scalefont setfont
	linewidth ptsize mul scaling 10 mul div setlinewidth
	/spacewidth ( ) stringwidth pop def
} bind def

/changefont {
	/fontheight exch def
	/fontslant exch def
	currentfont [
		1 0
		fontheight ptsize div fontslant sin mul fontslant cos div
		fontheight ptsize div
		0 0
	] makefont setfont
} bind def

/sf {f} bind def

/cf {
	dup length 2 idiv
	/entries exch def
	/chtab exch def
	/newfont exch def

	findfont dup length 1 add dict
	/newdict exch def
	{1 index /FID ne {newdict 3 1 roll put} {pop pop} ifelse} forall

	newdict /Metrics entries dict put
	newdict /Metrics get
	begin
		chtab aload pop
		1 1 entries {pop def} for
		newfont newdict definefont pop
	end
} bind def

%
% A few arrays used to adjust reference points and character widths in some
% of the printer resident fonts. If square roots are too high try changing
% the lines describing /radical and /radicalex to,
%
%	/radical	[0 -75 550 0]
%	/radicalex	[-50 -75 500 0]
%

/Sdefs [
	/bracketlefttp		[220 500]
	/bracketleftbt		[220 500]
	/bracketrighttp		[-70 380]
	/bracketrightbt		[-70 380]
	/braceleftbt		[220 490]
	/bracketrightex		[220 -125 500 0]
	/radical		[0 0 550 0]
	% NeWSprint's \(br is too low, compensate
	statusdict /product get (NeWS Server) eq {
		/radicalex		[-50 100 500 0]
		/parenleftex		[-20 100 0 0]

	} {
		/radicalex		[-50 0 500 0]
		/parenleftex		[-20 -170 0 0]
	} ifelse
	/integral		[100 -50 500 0]
	/infinity		[10 -75 730 0]
] def

/S1defs [
	/underscore		[0 80 500 0]
	/endash			[7 90 650 0]
] def
%%EndProlog
%%BeginSetup
mark
/resolution 720 def
setup
2 setdecoding
%%EndSetup
%%Page: 1 1
save
mark
1 pagesetup
10 R f
(WordNet)720 480 w
10 S f
(\324)1091 480 w
10 R f
(WNLICENS \( 7WN \))3 846 1 4554 480 t
9 B f
(NAME)720 960 w
10 R f
(wnlicens)1080 1080 w
10 S1 f
(\261)1468 1080 w
10 R f
(text of WordNet license)3 980 1 1566 1080 t
9 B f
(DESCRIPTION)720 1248 w
10 R f
(WordNet Release 3.0)2 872 1 1080 1368 t
( under the)2 423(This software and database is being provided to you, the LICENSEE, by Princeton University)13 3897 2 1080 1608 t
( obtaining, using and/or copying this software and database, you agree that you)12 3390( By)1 194(following license.)1 736 3 1080 1728 t
(have read, understood, and will comply with these terms and conditions.:)10 3002 1 1080 1848 t
( any)1 181(Permission to use, copy, modify and distribute this software and database and its documentation for)14 4139 2 1080 2088 t
( fee or royalty is hereby granted, provided that you agree to comply with the follow-)15 3486(purpose and without)2 834 2 1080 2208 t
( and statements, including the disclaimer, and that the same appear on ALL copies)13 3487(ing copyright notice)2 833 2 1080 2328 t
( including modi\256cations that you make for internal use or)9 2436(of the software, database and documentation,)5 1884 2 1080 2448 t
(for distribution.)1 636 1 1080 2568 t
( rights reserved.)2 656( All)1 194(WordNet 3.0 Copyright 2006 by Princeton University.)6 2230 3 1080 2808 t
(THIS SOFTWARE AND DATABASE IS PROVIDED)5 2374 1 1080 3048 t
10 S1 f
(")3508 3048 w
10 R f
(AS IS)1 271 1 3549 3048 t
10 S1 f
(")3820 3048 w
10 R f
( UNIVERSITY)1 654(AND PRINCETON)1 831 2 3915 3048 t
( WAY OF)2 474( BY)1 226( WARRANTIES, EXPRESS OR IMPLIED.)4 1894(MAKES NO REPRESENTATIONS OR)3 1726 4 1080 3168 t
( PRINCETON UNIVERSITY MAKES NO REPRESENTA-)5 2626(EXAMPLE, BUT NOT LIMITATION,)3 1694 2 1080 3288 t
( ANY PARTICULAR)2 950(TIONS OR WARRANTIES OF MERCHANT- ABILITY OR FITNESS FOR)8 3370 2 1080 3408 t
( THE LICENSED SOFTWARE, DATABASE OR DOCUMENTA-)6 2794(PURPOSE OR THAT THE USE OF)5 1526 2 1080 3528 t
( TRADEMARKS OR)2 900(TION WILL NOT INFRINGE ANY THIRD PARTY PATENTS, COPYRIGHTS,)8 3420 2 1080 3648 t
(OTHER RIGHTS.)1 752 1 1080 3768 t
( Princeton University or Princeton may not be used in advertising or publicity pertaining to)14 3796(The name of)2 524 2 1080 4008 t
( software, database and any associ-)5 1441( to copyright in this)4 820( Title)1 256(distribution of the software and/or database.)5 1803 4 1080 4128 t
( with Princeton University and LICENSEE agrees to)7 2351(ated documentation shall at all times remain)6 1969 2 1080 4248 t
(preserve same.)1 600 1 1080 4368 t
( 1)1 1870( change: Dec 2006)3 769( Last)1 1512(WordNet 3.0)1 529 4 720 7680 t
cleartomark
showpage
restore
%%EndPage: 1 1
%%Trailer
done
%%DocumentFonts: Times-Roman Symbol Times-Bold
%%Pages: 1
