%!PS
%%Version: 3.15
%%DocumentFonts: (atend)
%%Pages: (atend)
%%EndComments
%ident	"@(#)lp:filter/postscript/postscript/dpost.ps	1.1"
%
% Version 3.16 prologue for troff files.
%

/#copies 1 store
/aspectratio 1 def
/formsperpage 1 def
/landscape false def
/linewidth .3 def
/magnification 1 def
/margin 0 def
/orientation 0 def
/resolution 720 def
/xoffset 0 def
/yoffset 0 def

/roundpage true def
/useclippath true def
/pagebbox [0 0 612 792] def

/R  /Times-Roman def
/I  /Times-Italic def
/B  /Times-Bold def
/BI /Times-BoldItalic def
/H  /Helvetica def
/HI /Helvetica-Oblique def
/HB /Helvetica-Bold def
/HX /Helvetica-BoldOblique def
/CW /Courier def
/CO /Courier def
/CI /Courier-Oblique def
/CB /Courier-Bold def
/CX /Courier-BoldOblique def
/PA /Palatino-Roman def
/PI /Palatino-Italic def
/PB /Palatino-Bold def
/PX /Palatino-BoldItalic def
/Hr /Helvetica-Narrow def
/Hi /Helvetica-Narrow-Oblique def
/Hb /Helvetica-Narrow-Bold def
/Hx /Helvetica-Narrow-BoldOblique def
/KR /Bookman-Light def
/KI /Bookman-LightItalic def
/KB /Bookman-Demi def
/KX /Bookman-DemiItalic def
/AR /AvantGarde-Book def
/AI /AvantGarde-BookOblique def
/AB /AvantGarde-Demi def
/AX /AvantGarde-DemiOblique def
/NR /NewCenturySchlbk-Roman def
/NI /NewCenturySchlbk-Italic def
/NB /NewCenturySchlbk-Bold def
/NX /NewCenturySchlbk-BoldItalic def
/ZD /ZapfDingbats def
/ZI /ZapfChancery-MediumItalic def
/VR /Varitimes#Roman def
/VI /Varitimes#Italic def
/VB /Varitimes#Bold def
/VX /Varitimes#BoldItalic def
/S  /S def
/S1 /S1 def
/GR /Symbol def

/inch {72 mul} bind def
/min {2 copy gt {exch} if pop} bind def

/setup {
	counttomark 2 idiv {def} repeat pop

	landscape {/orientation 90 orientation add def} if
	/scaling 72 resolution div def
	linewidth setlinewidth
	1 setlinecap

	pagedimensions
	xcenter ycenter translate
	orientation neg rotate
	width 2 div neg height 2 div translate
	xoffset inch yoffset inch translate
	margin 2 div dup neg translate
	magnification dup aspectratio mul scale
	scaling scaling scale

	/Symbol /S Sdefs cf
	/Times-Roman /S1 S1defs cf
	0 0 moveto
} def

/pagedimensions {
	useclippath userdict /gotpagebbox known not and {
		/pagebbox [clippath pathbbox newpath] def
		roundpage currentdict /roundpagebbox known and {roundpagebbox} if
	} if
	pagebbox aload pop
	4 -1 roll exch 4 1 roll 4 copy
	landscape {4 2 roll} if
	sub /width exch def
	sub /height exch def
	add 2 div /xcenter exch def
	add 2 div /ycenter exch def
	userdict /gotpagebbox true put
} def

/pagesetup {
	/page exch def
	currentdict /pagedict known currentdict page known and {
		page load pagedict exch get cvx exec
	} if
} def

/decodingdefs [
	{counttomark 2 idiv {y moveto show} repeat}
	{neg /y exch def counttomark 2 idiv {y moveto show} repeat}
	{neg moveto {2 index stringwidth pop sub exch div 0 32 4 -1 roll widthshow} repeat}
	{neg moveto {spacewidth sub 0.0 32 4 -1 roll widthshow} repeat}
	{counttomark 2 idiv {y moveto show} repeat}
	{neg setfunnytext}
] def

/setdecoding {/t decodingdefs 3 -1 roll get bind def} bind def

/w {neg moveto show} bind def
/m {neg dup /y exch def moveto} bind def
/done {/lastpage where {pop lastpage} if} def

/f {
	dup /font exch def findfont exch
	dup /ptsize exch def scaling div dup /size exch def scalefont setfont
	linewidth ptsize mul scaling 10 mul div setlinewidth
	/spacewidth ( ) stringwidth pop def
} bind def

/changefont {
	/fontheight exch def
	/fontslant exch def
	currentfont [
		1 0
		fontheight ptsize div fontslant sin mul fontslant cos div
		fontheight ptsize div
		0 0
	] makefont setfont
} bind def

/sf {f} bind def

/cf {
	dup length 2 idiv
	/entries exch def
	/chtab exch def
	/newfont exch def

	findfont dup length 1 add dict
	/newdict exch def
	{1 index /FID ne {newdict 3 1 roll put} {pop pop} ifelse} forall

	newdict /Metrics entries dict put
	newdict /Metrics get
	begin
		chtab aload pop
		1 1 entries {pop def} for
		newfont newdict definefont pop
	end
} bind def

%
% A few arrays used to adjust reference points and character widths in some
% of the printer resident fonts. If square roots are too high try changing
% the lines describing /radical and /radicalex to,
%
%	/radical	[0 -75 550 0]
%	/radicalex	[-50 -75 500 0]
%

/Sdefs [
	/bracketlefttp		[220 500]
	/bracketleftbt		[220 500]
	/bracketrighttp		[-70 380]
	/bracketrightbt		[-70 380]
	/braceleftbt		[220 490]
	/bracketrightex		[220 -125 500 0]
	/radical		[0 0 550 0]
	% NeWSprint's \(br is too low, compensate
	statusdict /product get (NeWS Server) eq {
		/radicalex		[-50 100 500 0]
		/parenleftex		[-20 100 0 0]

	} {
		/radicalex		[-50 0 500 0]
		/parenleftex		[-20 -170 0 0]
	} ifelse
	/integral		[100 -50 500 0]
	/infinity		[10 -75 730 0]
] def

/S1defs [
	/underscore		[0 80 500 0]
	/endash			[7 90 650 0]
] def
%%EndProlog
%%BeginSetup
mark
/resolution 720 def
setup
2 setdecoding
%%EndSetup
%%Page: 1 1
save
mark
1 pagesetup
10 R f
(WordNet)720 480 w
10 S f
(\324)1091 480 w
10 R f
( \( 3WN \))3 330( WNSEARCH)1 3130(Library Functions)1 727 3 1213 480 t
9 B f
(NAME)720 960 w
10 R f
(\256ndtheinfo, \256ndtheinfo)1 988 1 1080 1080 t
10 S f
(_)2068 1080 w
10 R f
(ds, is)1 266 1 2118 1080 t
10 S f
(_)2384 1080 w
10 R f
(de\256ned, in)1 482 1 2434 1080 t
10 S f
(_)2916 1080 w
10 R f
(wn, index)1 454 1 2966 1080 t
10 S f
(_)3420 1080 w
10 R f
(lookup, parse)1 598 1 3470 1080 t
10 S f
(_)4068 1080 w
10 R f
(index, getindex, read)2 957 1 4118 1080 t
10 S f
(_)5075 1080 w
10 R f
(synset,)5125 1080 w
(parse)1080 1200 w
10 S f
(_)1290 1200 w
10 R f
(synset, free)1 462 1 1340 1200 t
10 S f
(_)1802 1200 w
10 R f
(syns, free)1 390 1 1852 1200 t
10 S f
(_)2242 1200 w
10 R f
(synset, free)1 462 1 2292 1200 t
10 S f
(_)2754 1200 w
10 R f
(index, traceptrs)1 623 1 2804 1200 t
10 S f
(_)3427 1200 w
10 R f
(ds, do)1 247 1 3477 1200 t
10 S f
(_)3724 1200 w
10 R f
(trace)3774 1200 w
9 B f
(SYNOPSIS)720 1368 w
10 S1 f
(#)1080 1488 w
10 B f
(include)1130 1488 w
10 S1 f
(")1475 1488 w
10 B f
(wn.h)1516 1488 w
10 S1 f
(")1725 1488 w
10 B f
(char)1080 1656 w
10 S f
(*)1307 1656 w
10 B f
(\256ndtheinfo\(char)1357 1656 w
10 S f
(*)2085 1656 w
10 B f
(searchstr, int pos, int ptr)4 1087 1 2135 1656 t
10 S f
(_)3222 1656 w
10 B f
(type, int sense)2 613 1 3272 1656 t
10 S f
(_)3885 1656 w
10 B f
(num\);)3935 1656 w
(SynsetPtr \256ndtheinfo)1 917 1 1080 1824 t
10 S f
(_)1997 1824 w
10 B f
(ds\(char)2047 1824 w
10 S f
(*)2402 1824 w
10 B f
(searchstr, int pos, int ptr)4 1087 1 2452 1824 t
10 S f
(_)3539 1824 w
10 B f
(type, int sense)2 613 1 3589 1824 t
10 S f
(_)4202 1824 w
10 B f
(num \);)1 294 1 4252 1824 t
(unsigned int is)2 635 1 1080 1992 t
10 S f
(_)1715 1992 w
10 B f
(de\256ned\(char)1765 1992 w
10 S f
(*)2337 1992 w
10 B f
(searchstr, int pos\);)2 812 1 2387 1992 t
(unsigned int in)2 652 1 1080 2160 t
10 S f
(_)1732 2160 w
10 B f
(wn\(char)1782 2160 w
10 S f
(*)2170 2160 w
10 B f
(searchstr, int pos\);)2 812 1 2220 2160 t
(IndexPtr index)1 650 1 1080 2328 t
10 S f
(_)1730 2328 w
10 B f
(lookup\(char)1780 2328 w
10 S f
(*)2336 2328 w
10 B f
(searchstr, int pos\);)2 812 1 2386 2328 t
(IndexPtr parse)1 649 1 1080 2496 t
10 S f
(_)1729 2496 w
10 B f
(index\(long offset, int dabase, char)4 1471 1 1779 2496 t
10 S f
(*)3283 2496 w
10 B f
(line\);)3333 2496 w
(IndexPtr getindex\(char)1 1004 1 1080 2664 t
10 S f
(*)2117 2664 w
10 B f
(searchstr, int pos\);)2 812 1 2167 2664 t
(SynsetPtr read)1 643 1 1080 2832 t
10 S f
(_)1723 2832 w
10 B f
(synset\(int pos, long synset)3 1125 1 1773 2832 t
10 S f
(_)2898 2832 w
10 B f
(offset, char)1 484 1 2948 2832 t
10 S f
(*)3465 2832 w
10 B f
(searchstr\);)3515 2832 w
(SynsetPtr parse)1 682 1 1080 3000 t
10 S f
(_)1762 3000 w
10 B f
(synset\(FILE)1812 3000 w
10 S f
(*)2373 3000 w
10 B f
(fp, int pos, char)3 694 1 2423 3000 t
10 S f
(*)3150 3000 w
10 B f
(searchstr\);)3200 3000 w
(void free)1 382 1 1080 3168 t
10 S f
(_)1462 3168 w
10 B f
(syns\(SynsetPtr synptr\);)1 1010 1 1512 3168 t
(void free)1 382 1 1080 3336 t
10 S f
(_)1462 3336 w
10 B f
(synset\(SynsetPtr synptr\);)1 1087 1 1512 3336 t
(void free)1 382 1 1080 3504 t
10 S f
(_)1462 3504 w
10 B f
(index\(IndexPtr idx\);)1 883 1 1512 3504 t
(SynsetPtr traceptrs)1 836 1 1080 3672 t
10 S f
(_)1916 3672 w
10 B f
(ds\(SynsetPtr synptr, int ptr)3 1196 1 1966 3672 t
10 S f
(_)3162 3672 w
10 B f
(type, int pos, int depth\);)4 1055 1 3212 3672 t
(char)1080 3840 w
10 S f
(*)1307 3840 w
10 B f
(do)1357 3840 w
10 S f
(_)1463 3840 w
10 B f
(trace\(SynsetPtr synptr, int ptr)3 1316 1 1513 3840 t
10 S f
(_)2829 3840 w
10 B f
(type, int pos, int depth\);)4 1055 1 2879 3840 t
9 B f
(DESCRIPTION)720 4008 w
10 R f
( generally fall into several)4 1210( They)1 305( searching the WordNet database.)4 1511(These functions are used for)4 1294 4 1080 4128 t
( for reading and parsing index \256le entries; functions for reading and parsing synsets)13 3479(categories: functions)1 841 2 1080 4248 t
( functions for tracing pointers and hierarchies; functions for freeing space occupied by data)13 3807(in data \256les;)2 513 2 1080 4368 t
(structures allocated with)2 992 1 1080 4488 t
10 B f
(malloc)2105 4488 w
10 R f
(\(3\).)2388 4488 w
(In the following function descriptions,)4 1567 1 1080 4728 t
10 I f
(pos)2680 4728 w
10 R f
(is one of the following:)4 965 1 2852 4728 t
10 B f
(1)1440 4968 w
10 R f
(NOUN)1800 4968 w
10 B f
(2)1440 5088 w
10 R f
(VERB)1800 5088 w
10 B f
(3)1440 5208 w
10 R f
(ADJECTIVE)1800 5208 w
10 B f
(4)1440 5328 w
10 R f
(ADVERB)1800 5328 w
10 B f
(\256ndtheinfo\( \))1 550 1 1080 5568 t
10 R f
( results)1 295( Search)1 338(is the primary search algorithm for use with database interface applications.)10 3104 3 1663 5568 t
( searches listed in)3 824( All)1 225( formatted, and a pointer to the text buffer is returned.)10 2541(are automatically)1 730 4 1080 5688 t
10 B f
(WNHOME/include/wn.h)1080 5808 w
10 R f
(can be done by)3 628 1 2180 5808 t
10 B f
(\256ndtheinfo\( \))1 550 1 2843 5808 t
10 R f
(.)3393 5808 w
10 B f
(\256ndtheinfo)3486 5808 w
10 S f
(_)3954 5808 w
10 B f
(ds\( \))1 177 1 4004 5808 t
10 R f
(can be used to perform most)5 1184 1 4216 5808 t
( with applications that)3 910( is for use)3 418( This)1 245(of the searches, with results returned in a linked list data structure.)11 2747 4 1080 5928 t
(need to analyze the search results rather than just display them.)10 2600 1 1080 6048 t
( are passed the same arguments:)5 1373(Both functions)1 609 2 1080 6288 t
10 I f
(searchstr)3105 6288 w
10 R f
(is the word or collocation to search for;)7 1698 1 3520 6288 t
10 I f
(pos)5261 6288 w
10 R f
(indicates the syntactic category to search in;)6 1871 1 1080 6408 t
10 I f
(ptr)2994 6408 w
10 S f
(_)3111 6408 w
10 I f
(type)3161 6408 w
10 R f
( types for)2 411(is one of the valid search)5 1085 2 3370 6408 t
10 I f
(searchstr)4908 6408 w
10 R f
(in)5322 6408 w
10 I f
(pos)1080 6528 w
10 R f
( searches can be obtained by calling)6 1525(. \(Available)1 519 2 1219 6528 t
10 B f
(is)3303 6528 w
10 S f
(_)3370 6528 w
10 B f
(de\256ned\( \))1 394 1 3420 6528 t
10 R f
(described below.\))1 725 1 3855 6528 t
10 I f
(sense)4654 6528 w
10 S f
(_)4870 6528 w
10 I f
(num)4920 6528 w
10 R f
(should)5133 6528 w
(be)1080 6648 w
9 B f
(ALLSENSES)1213 6648 w
10 R f
(if the search is to be done on all senses of)10 1798 1 1772 6648 t
10 I f
(searchstr)3609 6648 w
10 R f
(in)4020 6648 w
10 I f
(pos)4136 6648 w
10 R f
(, or a positive integer indi-)5 1125 1 4275 6648 t
(cating which sense to search.)4 1193 1 1080 6768 t
10 B f
(\256ndtheinfo)1080 7008 w
10 S f
(_)1548 7008 w
10 B f
(ds\( \))1 177 1 1598 7008 t
10 R f
( are linked through the)4 948( Senses)1 341( synsets.)1 350(returns a linked list data structures representing)6 1951 4 1810 7008 t
10 I f
(nextss)1080 7128 w
10 R f
(\256eld of a)2 401 1 1372 7128 t
10 B f
(Synset)1821 7128 w
10 R f
( speci\256ed with)2 627( each sense, synsets that match the search)7 1818( For)1 220(data structure.)1 588 4 2147 7128 t
10 I f
(ptr)1080 7248 w
10 S f
(_)1197 7248 w
10 I f
(type)1247 7248 w
10 R f
(are linked through the)3 924 1 1453 7248 t
10 I f
(ptrlist)2417 7248 w
10 R f
(\256eld. See)1 420 1 2697 7248 t
9 B f
(Synset Navigation ,)2 767 1 3157 7248 t
10 R f
( detailed information on)3 1011(below, for)1 425 2 3964 7248 t
( 1)1 1870( change: Dec 2006)3 769( Last)1 1512(WordNet 3.0)1 529 4 720 7728 t
cleartomark
showpage
restore
%%EndPage: 1 1
%%Page: 2 2
save
mark
2 pagesetup
10 R f
(WordNet)720 480 w
10 S f
(\324)1091 480 w
10 R f
( \( 3WN \))3 330( WNSEARCH)1 3130(Library Functions)1 727 3 1213 480 t
(the linked lists returned.)3 990 1 1080 960 t
10 B f
(is)1080 1200 w
10 S f
(_)1147 1200 w
10 B f
(de\256ned\( \))1 394 1 1197 1200 t
10 R f
(sets a bit for each search type that is valid for)10 1967 1 1632 1200 t
10 I f
(searchstr)3641 1200 w
10 R f
(in)4055 1200 w
10 I f
(pos)4175 1200 w
10 R f
(, and returns the resulting)4 1086 1 4314 1200 t
( bit number corresponds to a pointer type constant de\256ned in)10 3215( Each)1 337(unsigned integer.)1 768 3 1080 1320 t
10 B f
(WNHOME/include/wn.h)1080 1440 w
10 R f
( the)1 167( example, if bit 2 is set,)6 1047(. For)1 241 3 2146 1440 t
9 B f
(HYPERPTR)3646 1440 w
10 R f
(search is valid for)3 772 1 4186 1440 t
10 I f
(searchstr)5003 1440 w
10 R f
(.)5375 1440 w
(There are 29 possible searches.)4 1275 1 1080 1560 t
10 B f
(in)1080 1800 w
10 S f
(_)1164 1800 w
10 B f
(wn\( \))1 210 1 1214 1800 t
10 R f
( contain one or more senses)5 1151(is used to \256nd the syntactic categories in the WordNet database that)11 2792 2 1457 1800 t
(of)1080 1920 w
10 I f
(searchstr)1215 1920 w
10 R f
(. If)1 176 1 1587 1920 t
10 I f
(pos)1815 1920 w
10 R f
(is)2006 1920 w
9 B f
(ALL)2125 1920 w
9 S f
(_)2310 1920 w
9 B f
(POS,)2355 1920 w
10 R f
( only the part of)4 742( Otherwise,)1 519(all syntactic categories are checked.)4 1535 3 2604 1920 t
( corresponding to each syntactic)4 1326( unsigned integer is returned with a bit set)8 1748( An)1 189(speech passed is checked.)3 1057 4 1080 2040 t
(category containing)1 800 1 1080 2160 t
10 I f
(searchstr)1915 2160 w
10 R f
( number for the part of speech.)6 1281( bit number matches the)4 1000(. The)1 248 3 2287 2160 t
10 B f
(0)4883 2160 w
10 R f
(is returned)1 433 1 4967 2160 t
(if)1080 2280 w
10 I f
(searchstr)1174 2280 w
10 R f
(is not present in)3 660 1 1579 2280 t
10 I f
(pos)2272 2280 w
10 R f
(.)2411 2280 w
10 B f
(index)1080 2520 w
10 S f
(_)1314 2520 w
10 B f
(lookup\( \))1 378 1 1364 2520 t
10 R f
(\256nds)1780 2520 w
10 I f
(searchstr)2014 2520 w
10 R f
(in the index \256le for)4 822 1 2425 2520 t
10 I f
(pos)3286 2520 w
10 R f
(and returns a pointer to the parsed entry in an)9 1936 1 3464 2520 t
10 B f
(Index)1080 2640 w
10 R f
(data structure.)1 576 1 1361 2640 t
10 I f
(searchstr)2006 2640 w
10 R f
( the form of the word \(lower case only, hyphens and)10 2187(must exactly match)2 799 2 2414 2640 t
(underscores in the same places\) in the index \256le.)8 2002 1 1080 2760 t
9 B f
(NULL)3148 2760 w
10 R f
(is returned if a match is not found.)7 1432 1 3431 2760 t
10 B f
(parse)1080 3000 w
10 S f
(_)1313 3000 w
10 B f
(index\( \))1 316 1 1363 3000 t
10 R f
( in an)2 252(parses an entry from an index \256le and returns a pointer to the parsed entry)14 3145 2 1718 3000 t
10 B f
(Index)5155 3000 w
10 R f
( the byte)2 366( Passed)1 341(data structure.)1 576 3 1080 3120 t
10 I f
(offset)2399 3120 w
10 R f
(and syntactic category, it reads the index entry at the desired loca-)11 2748 1 2652 3120 t
( passed)1 300( If)1 133( \256le.)1 187(tion in the corresponding)3 1026 4 1080 3240 t
10 I f
(line)2760 3240 w
10 R f
(,)2910 3240 w
10 I f
(line)2969 3240 w
10 R f
(contains an index \256le entry and the database index \256le)9 2247 1 3153 3240 t
( However,)1 464(is not consulted.)2 685 2 1080 3360 t
10 I f
(offset)2270 3360 w
10 R f
(and)2528 3360 w
10 I f
(dbase)2712 3360 w
10 R f
(should still be passed so the information can be stored in)10 2415 1 2985 3360 t
(the)1080 3480 w
10 B f
(Index)1235 3480 w
10 R f
(structure.)1513 3480 w
10 B f
(getindex\( \))1 443 1 1080 3720 t
10 R f
(is a)1 167 1 1579 3720 t
10 S1 f
(")1802 3720 w
10 R f
(smart)1843 3720 w
10 S1 f
(")2065 3720 w
10 R f
(search for)1 426 1 2162 3720 t
10 I f
(searchstr)2644 3720 w
10 R f
( corresponding to)2 763(in the index \256le)3 718 2 3072 3720 t
10 I f
(pos)4610 3720 w
10 R f
( applies to)2 475(. It)1 176 2 4749 3720 t
10 I f
(searchstr)1080 3840 w
10 R f
(an algorithm that replaces underscores with hyphens, hyphens with underscores, removes)10 3891 1 1509 3840 t
( is an exact)3 479(hyphens and underscores, and removes periods in an attempt to \256nd a form of the string that)16 3841 2 1080 3960 t
( \256le corresponding to)3 876(match for an entry in the index)6 1285 2 1080 4080 t
10 I f
(pos)3274 4080 w
10 R f
(.)3413 4080 w
10 B f
(index)3504 4080 w
10 S f
(_)3738 4080 w
10 B f
(lookup\( \))1 378 1 3788 4080 t
10 R f
(is called on each transformed)4 1201 1 4199 4080 t
( to the parsed)3 562( returns a pointer)3 703( It)1 127(string until a match is found or all the different strings have been tried.)13 2928 4 1080 4200 t
10 B f
(Index)1080 4320 w
10 R f
(data structure for)2 697 1 1358 4320 t
10 I f
(searchstr)2088 4320 w
10 R f
(, or)1 141 1 2460 4320 t
9 B f
(NULL)2634 4320 w
10 R f
(if a match is not found.)5 967 1 2917 4320 t
10 B f
(read)1080 4560 w
10 S f
(_)1274 4560 w
10 B f
(synset\( \))1 343 1 1324 4560 t
10 R f
( performs an)2 550( It)1 142( byte offset in a data \256le.)6 1128(is used to read a synset from a)7 1360 4 1714 4560 t
10 B f
(fseek)4942 4560 w
10 R f
(\(3\) to)1 242 1 5158 4560 t
10 I f
(synset)1080 4680 w
10 S f
(_)1324 4680 w
10 I f
(offset)1374 4680 w
10 R f
( to)1 112(in the data \256le corresponding)4 1205 2 1626 4680 t
10 I f
(pos)2977 4680 w
10 R f
(, and calls)2 420 1 3116 4680 t
10 B f
(parse)3570 4680 w
10 S f
(_)3803 4680 w
10 B f
(synset\( \))1 343 1 3853 4680 t
10 R f
(to read and parse the synset.)5 1170 1 4230 4680 t
(A pointer to the)3 654 1 1080 4800 t
10 B f
(Synset)1767 4800 w
10 R f
(data structure containing the parsed synset is returned.)7 2224 1 2078 4800 t
10 B f
(parse)1080 5040 w
10 S f
(_)1313 5040 w
10 B f
(synset\( \))1 343 1 1363 5040 t
10 R f
( at the current offset in the \256le indicated by)9 1920(reads the synset)2 674 2 1752 5040 t
10 I f
(fp)4393 5040 w
10 R f
(.)4471 5040 w
10 I f
(pos)4576 5040 w
10 R f
(is the syntactic)2 638 1 4762 5040 t
(category, and)1 546 1 1080 5160 t
10 I f
(searchstr)1660 5160 w
10 R f
(, if not)2 282 1 2032 5160 t
9 B f
(NULL,)2348 5160 w
10 R f
( An)1 188(indicates the word in the synset that the caller is interested in.)11 2557 2 2655 5160 t
(attempt is made to match)4 1065 1 1080 5280 t
10 I f
(searchstr)2185 5280 w
10 R f
( is found, the)3 570( an exact match)3 668( If)1 139(to one of the words in the synset.)7 1426 4 2597 5280 t
10 I f
(whichword)1080 5400 w
10 R f
( the)1 163(\256eld in)1 298 2 1567 5400 t
10 B f
(Synset)2069 5400 w
10 R f
(structure is set to that word's number in the synset \(beginning to count)12 3012 1 2388 5400 t
(from)1080 5520 w
10 B f
(1)1307 5520 w
10 R f
(\).)1357 5520 w
10 B f
(free)1080 5760 w
10 S f
(_)1245 5760 w
10 B f
(syns\( \))1 266 1 1295 5760 t
10 R f
( of)1 122(is used to free a linked list)6 1127 2 1599 5760 t
10 B f
(Synset)2887 5760 w
10 R f
(structures allocated by)2 926 1 3204 5760 t
10 B f
(\256ndtheinfo)4169 5760 w
10 S f
(_)4637 5760 w
10 B f
(ds\( \))1 177 1 4687 5760 t
10 R f
(.)4864 5760 w
10 I f
(synptr)4961 5760 w
10 R f
(is a)1 150 1 5250 5760 t
(pointer to the list to free.)5 1028 1 1080 5880 t
10 B f
(free)1080 6120 w
10 S f
(_)1245 6120 w
10 B f
(synset\( \))1 343 1 1295 6120 t
10 R f
(frees the)1 348 1 1671 6120 t
10 B f
(Synset)2052 6120 w
10 R f
(structure pointed to by)3 926 1 2363 6120 t
10 I f
(synptr)3322 6120 w
10 R f
(.)3572 6120 w
10 B f
(free)1080 6360 w
10 S f
(_)1245 6360 w
10 B f
(index\( \))1 316 1 1295 6360 t
10 R f
(frees the)1 348 1 1644 6360 t
10 B f
(Index)2025 6360 w
10 R f
(structure pointed to by)3 926 1 2303 6360 t
10 I f
(idx)3262 6360 w
10 R f
(.)3384 6360 w
10 B f
(traceptrs)1080 6600 w
10 S f
(_)1467 6600 w
10 B f
(ds\( \))1 177 1 1517 6600 t
10 R f
( pointers matching)2 784(is a recursive search algorithm that traces)6 1765 2 1738 6600 t
10 I f
(ptr)4332 6600 w
10 S f
(_)4449 6600 w
10 I f
(type)4499 6600 w
10 R f
(starting with the)2 690 1 4710 6600 t
( to by)2 278(synset pointed)1 601 2 1080 6720 t
10 I f
(synptr)2009 6720 w
10 R f
(. Setting)1 392 1 2259 6720 t
10 I f
(depth)2701 6720 w
10 R f
(to)2973 6720 w
10 B f
(1)3101 6720 w
10 R f
(when)3201 6720 w
10 B f
(traceptrs)3467 6720 w
10 S f
(_)3854 6720 w
10 B f
(ds\( \))1 177 1 3904 6720 t
10 R f
(is called indicates a recursive)4 1269 1 4131 6720 t
(search;)1080 6840 w
10 B f
(0)1407 6840 w
10 R f
( call.)1 215(indicates a non-recursive)2 1037 2 1502 6840 t
10 I f
(synptr)2833 6840 w
10 R f
(points to the data structure representing the synset to)8 2271 1 3129 6840 t
(search for a pointer of type)5 1132 1 1080 6960 t
10 I f
(ptr)2248 6960 w
10 S f
(_)2365 6960 w
10 I f
(type)2415 6960 w
10 R f
( read)1 206( a pointer type match is found, the synset pointed to is)11 2281(. When)1 332 3 2581 6960 t
(is linked onto the)3 749 1 1080 7080 t
10 I f
(nextss)1873 7080 w
10 R f
( by a recursive search are linked via the)8 1738( of the tree generated)4 917(chain. Levels)1 584 3 2161 7080 t
10 I f
(ptrlist)1080 7200 w
10 R f
(\256eld structure until)2 797 1 1363 7200 t
9 B f
(NULL)2203 7200 w
10 R f
( function is)2 484( This)1 253( the top \(or bottom\) of the tree.)7 1356(is found, indicating)2 811 4 2496 7200 t
( 2)1 1870( change: Dec 2006)3 769( Last)1 1512(WordNet 3.0)1 529 4 720 7680 t
cleartomark
showpage
restore
%%EndPage: 2 2
%%Page: 3 3
save
mark
3 pagesetup
10 R f
(WordNet)720 480 w
10 S f
(\324)1091 480 w
10 R f
( \( 3WN \))3 330( WNSEARCH)1 3130(Library Functions)1 727 3 1213 480 t
(usually called from)2 815 1 1080 960 t
10 B f
(\256ndtheinfo)1942 960 w
10 S f
(_)2410 960 w
10 B f
(ds\( \))1 177 1 2460 960 t
10 R f
( See)1 224(for each sense of the word.)5 1184 2 2684 960 t
9 B f
(Synset Navigation ,)2 781 1 4139 960 t
10 R f
(below, for)1 433 1 4967 960 t
(detailed information on the linked lists returned.)6 1977 1 1080 1080 t
10 B f
(do)1080 1320 w
10 S f
(_)1186 1320 w
10 B f
(trace\( \))1 297 1 1236 1320 t
10 R f
(performs the search indicated by)4 1354 1 1571 1320 t
10 I f
(ptr)2963 1320 w
10 S f
(_)3080 1320 w
10 I f
(type)3130 1320 w
10 R f
(on synset)1 388 1 3334 1320 t
10 I f
(synptr)3760 1320 w
10 R f
(in syntactic category)2 854 1 4049 1320 t
10 I f
(pos)4942 1320 w
10 R f
(.)5081 1320 w
10 I f
(depth)5178 1320 w
10 R f
(is de\256ned as above.)3 806 1 1080 1440 t
10 B f
(do)1952 1440 w
10 S f
(_)2058 1440 w
10 B f
(trace\( \))1 297 1 2108 1440 t
10 R f
(returns the search results formatted in a text buffer.)8 2106 1 2438 1440 t
9 B f
(Synset Navigation)1 715 1 900 1608 t
10 R f
(Since the)1 381 1 1080 1728 t
10 B f
(Synset)1498 1728 w
10 R f
( synsets for both word senses and pointers, the)8 1960(structure is used to represent the)5 1349 2 1813 1728 t
10 I f
(ptrlist)5160 1728 w
10 R f
(and)1080 1848 w
10 I f
(nextss)1260 1848 w
10 R f
( is a word sense or pointer.)6 1133(\256elds have different meanings depending on whether the structure)8 2727 2 1540 1848 t
(This can make navigation through the lists returned by)8 2245 1 1080 1968 t
10 B f
(\256ndtheinfo)3358 1968 w
10 S f
(_)3826 1968 w
10 B f
(ds\( \))1 177 1 3876 1968 t
10 R f
(confusing.)4086 1968 w
(Navigation through the returned list involves the following:)7 2441 1 1080 2208 t
(Following the)1 584 1 1080 2448 t
10 I f
(nextss)1714 2448 w
10 R f
( the various senses of)4 958(chain from the synset returned moves through)6 1986 2 2008 2448 t
10 I f
(searchstr)5003 2448 w
10 R f
(.)5375 2448 w
9 B f
(NULL)1080 2568 w
10 R f
(indicates that end of the chain of senses.)7 1664 1 1363 2568 t
(Following the)1 585 1 1080 2808 t
10 I f
(ptrlist)1716 2808 w
10 R f
(chain from a)2 558 1 2007 2808 t
10 B f
(Synset)2617 2808 w
10 R f
(structure representing a sense traces the hierarchy of the)8 2453 1 2947 2808 t
( in the)2 280( links)1 236( Subsequent)1 535(search results for that sense.)4 1186 4 1080 2928 t
10 I f
(ptrlist)3357 2928 w
10 R f
(chain indicate the next level \(up or down,)7 1763 1 3637 2928 t
(depending on the search\) in the hierarchy.)6 1724 1 1080 3048 t
9 B f
(NULL)2870 3048 w
10 R f
(indicates the end of the chain of search result synsets.)9 2212 1 3153 3048 t
(If a synset pointed to by)5 1023 1 1080 3288 t
10 I f
(ptrlist)2140 3288 w
10 R f
( the)1 160(has a value in)3 582 2 2417 3288 t
10 I f
(nextss)3197 3288 w
10 R f
(\256eld, it represents another pointer of the same)7 1921 1 3479 3288 t
( Following)1 487( example, some noun synsets have two hypernyms.)7 2171( For)1 215(type at that level in the hierarchy.)6 1447 4 1080 3408 t
(this)1080 3528 w
10 I f
(nextss)1262 3528 w
10 R f
(pointer, and then the)3 857 1 1543 3528 t
10 I f
(ptrlist)2437 3528 w
10 R f
(chain from the)2 606 1 2714 3528 t
10 B f
(Synset)3357 3528 w
10 R f
( traces another, paral-)3 902(structure pointed to,)2 826 2 3672 3528 t
(lel, hierarchy, until the end is indicated by)7 1852 1 1080 3648 t
9 B f
(NULL)2981 3648 w
10 R f
(on that)1 298 1 3279 3648 t
10 I f
(ptrlist)3625 3648 w
10 R f
( a)1 92(chain. So,)1 453 2 3913 3648 t
10 B f
(synset)4506 3648 w
10 R f
(representing a)1 585 1 4815 3648 t
(pointer \(versus a sense of)4 1090 1 1080 3768 t
10 I f
(searchstr)2214 3768 w
10 R f
( non-NULL value in)3 878(\) having a)2 437 2 2586 3768 t
10 I f
(nextss)3946 3768 w
10 R f
(has another chain of search)4 1165 1 4235 3768 t
(results linked through the)3 1043 1 1080 3888 t
10 I f
(ptrlist)2156 3888 w
10 R f
(chain of the synset pointed to by)6 1347 1 2429 3888 t
10 I f
(nextss)3809 3888 w
10 R f
(.)4053 3888 w
(If)1080 4128 w
10 I f
(searchstr)1184 4128 w
10 R f
( base form in WordNet \(as in the noun)8 1648(contains more than one)3 968 2 1594 4128 t
10 B f
(axes)4249 4128 w
10 R f
(, which has base forms)4 968 1 4432 4128 t
10 B f
(axe)1080 4248 w
10 R f
(and)1259 4248 w
10 B f
(axis)1438 4248 w
10 R f
(\), synsets representing the search results for each base form are linked through the)13 3405 1 1605 4248 t
10 I f
(nextform)5045 4248 w
10 R f
(pointer of the)2 554 1 1080 4368 t
10 B f
(Synset)1667 4368 w
10 R f
(structure.)1978 4368 w
9 B f
(WordNet Searches)1 745 1 900 4536 t
10 R f
( the Word-)2 462( Using)1 312( is or the results returned.)5 1090(There is no extensive description of what each search type)9 2456 4 1080 4656 t
(Net interface, examining the source code, and reading)7 2243 1 1080 4776 t
10 B f
(wndb)3361 4776 w
10 R f
( best ways to see what types)6 1198(\(5WN\) are the)2 601 2 3601 4776 t
(of searches are available and the data returned for each.)9 2285 1 1080 4896 t
(Listed below are the valid searches that can be passed as)10 2385 1 1080 5136 t
10 I f
(ptr)3503 5136 w
10 S f
(_)3620 5136 w
10 I f
(type)3670 5136 w
10 R f
(to)3874 5136 w
10 B f
(\256ndtheinfo\( \))1 550 1 3990 5136 t
10 R f
( a negative)2 458(. Passing)1 402 2 4540 5136 t
(value \(when applicable\) causes a recursive, hierarchical search by setting)9 3008 1 1080 5256 t
10 I f
(depth)4123 5256 w
10 R f
(to)4380 5256 w
10 B f
(1)4493 5256 w
10 R f
(when)4578 5256 w
10 B f
(traceptrs\( \))1 469 1 4829 5256 t
10 R f
(is)5333 5256 w
(called.)1080 5376 w
( 3)1 1870( change: Dec 2006)3 769( Last)1 1512(WordNet 3.0)1 529 4 720 7680 t
cleartomark
showpage
restore
%%EndPage: 3 3
%%Page: 4 4
save
mark
4 pagesetup
10 R f
(WordNet)720 480 w
10 S f
(\324)1091 480 w
10 R f
( \( 3WN \))3 330( WNSEARCH)1 3130(Library Functions)1 727 3 1213 480 t
10 S f
(_ ______________________________________________________________________________)1 3910 1 1285 860 t
10 B f
(ptr)1335 980 w
10 S f
(_)1468 980 w
10 B f
( Search)1 448( Pointer)1 469(type Value)1 1212 3 1518 980 t
(Symbol)2880 1100 w
10 S f
(_ ______________________________________________________________________________)1 3910 1 1285 1120 t
10 R f
( Antonyms)1 712( !)1 428(ANTPTR 1)1 1295 3 1335 1240 t
(HYPERPTR 2)1 1295 1 1335 1360 t
10 S1 f
(@)2995 1360 w
10 R f
(Hypernyms)3353 1360 w
(HYPOPTR 3)1 1295 1 1335 1480 t
10 S f
(~)3014 1480 w
10 R f
(Hyponyms)3353 1480 w
(ENTAILPTR 4)1 1295 1 1335 1600 t
10 S f
(*)3016 1600 w
10 R f
(Entailment)3353 1600 w
( Similar)1 568( &)1 450(SIMPTR 5)1 1295 3 1335 1720 t
(ISMEMBERPTR 6)1 1295 1 1335 1840 t
10 S1 f
(#)2977 1840 w
10 R f
( meronym)1 416(m Member)1 664 2 3027 1840 t
(ISSTUFFPTR 7)1 1295 1 1335 1960 t
10 S1 f
(#)2997 1960 w
10 R f
( meronym)1 416(s Substance)1 711 2 3047 1960 t
(ISPARTPTR 8)1 1295 1 1335 2080 t
10 S1 f
(#)2991 2080 w
10 R f
( meronym)1 416(p Part)1 473 2 3041 2080 t
( holonym)1 389( Member)1 569( %m)1 492(HASMEMBERPTR 9)1 1295 4 1335 2200 t
( holonym)1 389( Substance)1 656( %s)1 447(HASSTUFFPTR 10)1 1320 4 1335 2320 t
( holonym)1 389( Part)1 406( %p)1 453(HASPARTPTR 11)1 1320 4 1335 2440 t
( meronyms)1 455( All)1 398( %)1 428(MERONYM 12)1 1320 4 1335 2560 t
(HOLONYM 13)1 1320 1 1335 2680 t
10 S1 f
(#)3016 2680 w
10 R f
(All holonyms)1 556 1 3353 2680 t
(CAUSETO 14)1 1320 1 1335 2800 t
10 S1 f
(>)3013 2800 w
10 R f
(Cause)3353 2800 w
(PPLPTR 15)1 1320 1 1335 2920 t
10 S1 f
(<)3013 2920 w
10 R f
(Participle of verb)2 709 1 3353 2920 t
(SEEALSOPTR 16)1 1320 1 1335 3040 t
10 S1 f
(\303)3025 3040 w
10 R f
(Also see)1 349 1 3353 3040 t
(PERTPTR 17)1 1320 1 1335 3160 t
10 S1 f
(\\)3027 3160 w
10 R f
(Pertains to noun or derived from adjective)6 1734 1 3353 3160 t
( Attribute)1 659( =)1 400(ATTRIBUTE 18)1 1320 3 1335 3280 t
( group)1 266( Verb)1 486( $)1 411(VERBGROUP 19)1 1320 4 1335 3400 t
( related form)2 531( Derivationally)1 861( +)1 414(DERIVATION 20)1 1320 4 1335 3520 t
( of synset)2 399( Domain)1 620( ;)1 400(CLASSIFICATION 21)1 1320 4 1335 3640 t
( of this domain)3 627( Member)1 633( -)1 403(CLASS 22)1 1320 4 1335 3760 t
(SYNS 23)1 1320 1 1335 3880 t
10 I f
(n/a)2977 3880 w
10 R f
(Find synonyms)1 623 1 3353 3880 t
(FREQ 24)1 1320 1 1335 4000 t
10 I f
(n/a)2977 4000 w
10 R f
(Polysemy)3353 4000 w
(FRAMES 25)1 1320 1 1335 4120 t
10 I f
(n/a)2977 4120 w
10 R f
(Verb example sentences and generic frames)5 1792 1 3353 4120 t
(COORDS 26)1 1320 1 1335 4240 t
10 I f
(n/a)2977 4240 w
10 R f
(Noun coordinates)1 715 1 3353 4240 t
(RELATIVES 27)1 1320 1 1335 4360 t
10 I f
(n/a)2977 4360 w
10 R f
(Group related senses)2 847 1 3353 4360 t
(HMERONYM 28)1 1320 1 1335 4480 t
10 I f
(n/a)2977 4480 w
10 R f
(Hierarchical meronym search)2 1195 1 3353 4480 t
(HHOLONYM 29)1 1320 1 1335 4600 t
10 I f
(n/a)2977 4600 w
10 R f
(Hierarchical holonym search)2 1168 1 3353 4600 t
(WNGREP 30)1 1320 1 1335 4720 t
10 I f
(n/a)2977 4720 w
10 R f
(Find keywords by substring)3 1138 1 3353 4720 t
(OVERVIEW 31)1 1320 1 1335 4840 t
10 I f
(n/a)2977 4840 w
10 R f
(Show all synsets for word)4 1070 1 3353 4840 t
(CLASSIF)1335 4960 w
10 S f
(_)1736 4960 w
10 R f
( domain topic)2 566( Show)1 504( ;c)1 422(CATEGORY 32)1 869 4 1786 4960 t
(CLASSIF)1335 5080 w
10 S f
(_)1736 5080 w
10 R f
( domain usage)2 593( Show)1 501( ;u)1 425(USAGE 33)1 869 4 1786 5080 t
(CLASSIF)1335 5200 w
10 S f
(_)1736 5200 w
10 R f
( domain region)2 621( Show)1 509( ;r)1 417(REGIONAL 34)1 869 4 1786 5200 t
(CLASS)1335 5320 w
10 S f
(_)1647 5320 w
10 R f
( domain terms for topic)4 970( Show)1 501( -c)1 425(CATEGORY 35)1 958 4 1697 5320 t
(CLASS)1335 5440 w
10 S f
(_)1647 5440 w
10 R f
( domain terms for usage)4 997( Show)1 498( -u)1 428(USAGE 36)1 958 4 1697 5440 t
(CLASS)1335 5560 w
10 S f
(_)1647 5560 w
10 R f
( domain terms for region)4 1025( Show)1 507( -r)1 419(REGIONAL 37)1 958 4 1697 5560 t
(INSTANCE 38)1 1320 1 1335 5680 t
10 S1 f
(@)2981 5680 w
10 R f
( of)1 116(i Instance)1 612 2 3073 5680 t
(INSTANCES 39)1 1320 1 1335 5800 t
10 S f
(~)3000 5800 w
10 R f
( instances)1 399(i Show)1 526 2 3055 5800 t
10 S f
( \347)1 -3910(_ ______________________________________________________________________________)1 3910 2 1285 5820 t
(\347)1285 5760 w
(\347)1285 5660 w
(\347)1285 5560 w
(\347)1285 5460 w
(\347)1285 5360 w
(\347)1285 5260 w
(\347)1285 5160 w
(\347)1285 5060 w
(\347)1285 4960 w
(\347)1285 4860 w
(\347)1285 4760 w
(\347)1285 4660 w
(\347)1285 4560 w
(\347)1285 4460 w
(\347)1285 4360 w
(\347)1285 4260 w
(\347)1285 4160 w
(\347)1285 4060 w
(\347)1285 3960 w
(\347)1285 3860 w
(\347)1285 3760 w
(\347)1285 3660 w
(\347)1285 3560 w
(\347)1285 3460 w
(\347)1285 3360 w
(\347)1285 3260 w
(\347)1285 3160 w
(\347)1285 3060 w
(\347)1285 2960 w
(\347)1285 2860 w
(\347)1285 2760 w
(\347)1285 2660 w
(\347)1285 2560 w
(\347)1285 2460 w
(\347)1285 2360 w
(\347)1285 2260 w
(\347)1285 2160 w
(\347)1285 2060 w
(\347)1285 1960 w
(\347)1285 1860 w
(\347)1285 1760 w
(\347)1285 1660 w
(\347)1285 1560 w
(\347)1285 1460 w
(\347)1285 1360 w
(\347)1285 1260 w
(\347)1285 1160 w
(\347)1285 1060 w
(\347)1285 960 w
(\347)2405 5820 w
(\347)2405 5760 w
(\347)2405 5660 w
(\347)2405 5560 w
(\347)2405 5460 w
(\347)2405 5360 w
(\347)2405 5260 w
(\347)2405 5160 w
(\347)2405 5060 w
(\347)2405 4960 w
(\347)2405 4860 w
(\347)2405 4760 w
(\347)2405 4660 w
(\347)2405 4560 w
(\347)2405 4460 w
(\347)2405 4360 w
(\347)2405 4260 w
(\347)2405 4160 w
(\347)2405 4060 w
(\347)2405 3960 w
(\347)2405 3860 w
(\347)2405 3760 w
(\347)2405 3660 w
(\347)2405 3560 w
(\347)2405 3460 w
(\347)2405 3360 w
(\347)2405 3260 w
(\347)2405 3160 w
(\347)2405 3060 w
(\347)2405 2960 w
(\347)2405 2860 w
(\347)2405 2760 w
(\347)2405 2660 w
(\347)2405 2560 w
(\347)2405 2460 w
(\347)2405 2360 w
(\347)2405 2260 w
(\347)2405 2160 w
(\347)2405 2060 w
(\347)2405 1960 w
(\347)2405 1860 w
(\347)2405 1760 w
(\347)2405 1660 w
(\347)2405 1560 w
(\347)2405 1460 w
(\347)2405 1360 w
(\347)2405 1260 w
(\347)2405 1160 w
(\347)2405 1060 w
(\347)2405 960 w
(\347)2805 5820 w
(\347)2805 5760 w
(\347)2805 5660 w
(\347)2805 5560 w
(\347)2805 5460 w
(\347)2805 5360 w
(\347)2805 5260 w
(\347)2805 5160 w
(\347)2805 5060 w
(\347)2805 4960 w
(\347)2805 4860 w
(\347)2805 4760 w
(\347)2805 4660 w
(\347)2805 4560 w
(\347)2805 4460 w
(\347)2805 4360 w
(\347)2805 4260 w
(\347)2805 4160 w
(\347)2805 4060 w
(\347)2805 3960 w
(\347)2805 3860 w
(\347)2805 3760 w
(\347)2805 3660 w
(\347)2805 3560 w
(\347)2805 3460 w
(\347)2805 3360 w
(\347)2805 3260 w
(\347)2805 3160 w
(\347)2805 3060 w
(\347)2805 2960 w
(\347)2805 2860 w
(\347)2805 2760 w
(\347)2805 2660 w
(\347)2805 2560 w
(\347)2805 2460 w
(\347)2805 2360 w
(\347)2805 2260 w
(\347)2805 2160 w
(\347)2805 2060 w
(\347)2805 1960 w
(\347)2805 1860 w
(\347)2805 1760 w
(\347)2805 1660 w
(\347)2805 1560 w
(\347)2805 1460 w
(\347)2805 1360 w
(\347)2805 1260 w
(\347)2805 1160 w
(\347)2805 1060 w
(\347)2805 960 w
(\347)3278 5820 w
(\347)3278 5760 w
(\347)3278 5660 w
(\347)3278 5560 w
(\347)3278 5460 w
(\347)3278 5360 w
(\347)3278 5260 w
(\347)3278 5160 w
(\347)3278 5060 w
(\347)3278 4960 w
(\347)3278 4860 w
(\347)3278 4760 w
(\347)3278 4660 w
(\347)3278 4560 w
(\347)3278 4460 w
(\347)3278 4360 w
(\347)3278 4260 w
(\347)3278 4160 w
(\347)3278 4060 w
(\347)3278 3960 w
(\347)3278 3860 w
(\347)3278 3760 w
(\347)3278 3660 w
(\347)3278 3560 w
(\347)3278 3460 w
(\347)3278 3360 w
(\347)3278 3260 w
(\347)3278 3160 w
(\347)3278 3060 w
(\347)3278 2960 w
(\347)3278 2860 w
(\347)3278 2760 w
(\347)3278 2660 w
(\347)3278 2560 w
(\347)3278 2460 w
(\347)3278 2360 w
(\347)3278 2260 w
(\347)3278 2160 w
(\347)3278 2060 w
(\347)3278 1960 w
(\347)3278 1860 w
(\347)3278 1760 w
(\347)3278 1660 w
(\347)3278 1560 w
(\347)3278 1460 w
(\347)3278 1360 w
(\347)3278 1260 w
(\347)3278 1160 w
(\347)3278 1060 w
(\347)3278 960 w
(\347)5195 5820 w
(\347)5195 5760 w
(\347)5195 5660 w
(\347)5195 5560 w
(\347)5195 5460 w
(\347)5195 5360 w
(\347)5195 5260 w
(\347)5195 5160 w
(\347)5195 5060 w
(\347)5195 4960 w
(\347)5195 4860 w
(\347)5195 4760 w
(\347)5195 4660 w
(\347)5195 4560 w
(\347)5195 4460 w
(\347)5195 4360 w
(\347)5195 4260 w
(\347)5195 4160 w
(\347)5195 4060 w
(\347)5195 3960 w
(\347)5195 3860 w
(\347)5195 3760 w
(\347)5195 3660 w
(\347)5195 3560 w
(\347)5195 3460 w
(\347)5195 3360 w
(\347)5195 3260 w
(\347)5195 3160 w
(\347)5195 3060 w
(\347)5195 2960 w
(\347)5195 2860 w
(\347)5195 2760 w
(\347)5195 2660 w
(\347)5195 2560 w
(\347)5195 2460 w
(\347)5195 2360 w
(\347)5195 2260 w
(\347)5195 2160 w
(\347)5195 2060 w
(\347)5195 1960 w
(\347)5195 1860 w
(\347)5195 1760 w
(\347)5195 1660 w
(\347)5195 1560 w
(\347)5195 1460 w
(\347)5195 1360 w
(\347)5195 1260 w
(\347)5195 1160 w
(\347)5195 1060 w
(\347)5195 960 w
10 B f
(\256ndtheinfo)1080 6060 w
10 S f
(_)1548 6060 w
10 B f
(ds\( \))1 177 1 1598 6060 t
10 R f
(cannot perform the following searches:)4 1595 1 1808 6060 t
(SEEALSOPTR)1440 6300 w
(PERTPTR)1440 6420 w
(VERBGROUP)1440 6540 w
(FREQ)1440 6660 w
(FRAMES)1440 6780 w
(RELATIVES)1440 6900 w
(WNGREP)1440 7020 w
(OVERVIEW)1440 7140 w
( 4)1 1870( change: Dec 2006)3 769( Last)1 1512(WordNet 3.0)1 529 4 720 7680 t
cleartomark
showpage
restore
%%EndPage: 4 4
%%Page: 5 5
save
mark
5 pagesetup
10 R f
(WordNet)720 480 w
10 S f
(\324)1091 480 w
10 R f
( \( 3WN \))3 330( WNSEARCH)1 3130(Library Functions)1 727 3 1213 480 t
9 B f
(NOTES)720 960 w
10 R f
(Applications that use WordNet and/or the morphological functions must call)9 3169 1 1080 1080 t
10 B f
(wninit\( \))1 355 1 4286 1080 t
10 R f
( start of the)3 491(at the)1 231 2 4678 1080 t
(program. See)1 573 1 1080 1200 t
10 B f
(wnutil)1686 1200 w
10 R f
(\(3WN\) for more information.)3 1199 1 1959 1200 t
(In all function calls,)3 826 1 1080 1440 t
10 I f
(searchstr)1940 1440 w
10 R f
( either a word or a collocation formed by joining individual words)11 2754(may be)1 300 2 2346 1440 t
(with underscore characters \()3 1150 1 1080 1560 t
10 S f
(_)2230 1560 w
10 R f
(\).)2280 1560 w
(The)1080 1800 w
10 B f
(SearchResults)1278 1800 w
10 R f
(structure de\256nes \256elds in the)4 1225 1 1926 1800 t
10 I f
(wnresults)3195 1800 w
10 R f
(global variable that are set by the various)7 1777 1 3623 1800 t
( number of senses the word)5 1180( is a way to get additional information, such as the)10 2192( This)1 254(search functions.)1 694 4 1080 1920 t
( The)1 221(has, from the search functions.)4 1257 2 1080 2040 t
10 I f
(searchds)2591 2040 w
10 R f
(\256eld is set by)3 555 1 2979 2040 t
10 B f
(\256ndtheinfo)3567 2040 w
10 S f
(_)4035 2040 w
10 B f
(ds\( \))1 177 1 4085 2040 t
10 R f
(.)4262 2040 w
(The)1080 2280 w
10 I f
(pos)1268 2280 w
10 R f
(passed to)1 377 1 1440 2280 t
10 B f
(traceptrs)1850 2280 w
10 S f
(_)2237 2280 w
10 B f
(ds\( \))1 177 1 2287 2280 t
10 R f
(is not used.)2 469 1 2497 2280 t
9 B f
(SEE ALSO)1 460 1 720 2568 t
10 B f
(wn)1080 2688 w
10 R f
(\(1WN\),)1208 2688 w
10 B f
(wnb)1601 2688 w
10 R f
(\(1WN\),)1785 2688 w
10 B f
(wnintro)2178 2688 w
10 R f
(\(3WN\),)2517 2688 w
10 B f
(binsrch)2910 2688 w
10 R f
(\(3WN\),)3233 2688 w
10 B f
(malloc)3626 2688 w
10 R f
(\(3\),)3909 2688 w
10 B f
(morph)4137 2688 w
10 R f
(\(3WN\),)4426 2688 w
10 B f
(wnutil)4820 2688 w
10 R f
(\(3WN\),)5093 2688 w
10 B f
(wnintro)1080 2808 w
10 R f
(\(5WN\).)1419 2808 w
9 B f
(WARNINGS)720 2976 w
10 B f
(parse)1080 3096 w
10 S f
(_)1313 3096 w
10 B f
(synset\( \))1 343 1 1363 3096 t
10 R f
(must \256nd an exact match between the)6 1587 1 1745 3096 t
10 I f
(searchstr)3371 3096 w
10 R f
(passed and a word in the synset to set)8 1618 1 3782 3096 t
10 I f
(whichword)1080 3216 w
10 R f
( attempt is made to translate hyphens and underscores, as is done in)12 2795(. No)1 213 2 1525 3216 t
10 B f
(getindex\( \))1 443 1 4566 3216 t
10 R f
(.)5009 3216 w
( and exception list \256les must be opened with)8 1937(The WordNet database)2 957 2 1080 3456 t
10 B f
(wninit)4019 3456 w
10 R f
(prior to using any of the)5 1063 1 4337 3456 t
(searching functions.)1 812 1 1080 3576 t
(A large search may cause)4 1070 1 1080 3816 t
10 B f
(\256ndtheinfo\( \))1 550 1 2188 3816 t
10 R f
( buffer size is deter-)4 853( maximum)1 444( The)1 226(to run out of buffer space.)5 1101 4 2776 3816 t
( printed in the out-)4 784( the buffer size is exceeded the following message is)9 2197( If)1 135(mined by computer platform.)3 1204 4 1080 3936 t
(put buffer:)1 432 1 1080 4056 t
10 S1 f
(")1545 4056 w
10 B f
( search and try again...)4 1007( Narrow)1 398(Search too large.)2 734 3 1586 4056 t
10 S1 f
(")3725 4056 w
10 R f
(.)3766 4056 w
(Passing an invalid)2 744 1 1080 4296 t
10 I f
(pos)1857 4296 w
10 R f
(will probably result in a core dump.)6 1477 1 2029 4296 t
( 5)1 1870( change: Dec 2006)3 769( Last)1 1512(WordNet 3.0)1 529 4 720 7680 t
cleartomark
showpage
restore
%%EndPage: 5 5
%%Trailer
done
%%DocumentFonts: Times-Roman Symbol Times-Bold Times-Italic
%%Pages: 5
